{
  "presets": [
    {
      "height": "480",
      "ID": 0,
      "pos": "3",
      "target": "viewport",
      "title": "",
      "type": "smartphone",
      "width": "320",
      "X": "",
      "Y": ""
    },
    {
      "height": "640",
      "ID": 1,
      "pos": "3",
      "target": "viewport",
      "title": "",
      "type": "smartphone",
      "width": "480",
      "X": "",
      "Y": ""
    },
    {
      "height": "960",
      "ID": 2,
      "pos": "3",
      "target": "viewport",
      "title": "",
      "type": "smartphone",
      "width": "640",
      "X": "",
      "Y": ""
    },
    {
      "height": "768",
      "ID": 5,
      "pos": "3",
      "target": "viewport",
      "title": "",
      "type": "tablet",
      "width": "768",
      "X": "",
      "Y": ""
    },
    {
      "height": "768",
      "ID": 3,
      "pos": "3",
      "target": "window",
      "title": "",
      "type": "laptop",
      "width": "1024",
      "X": "",
      "Y": ""
    },
    {
      "height": "768",
      "ID": 4,
      "pos": "3",
      "target": "window",
      "title": "",
      "type": "laptop",
      "width": "1280",
      "X": "",
      "Y": ""
    }
  ],
  "settings": {
    "popupWidth": "250",
    "tooltipDelay": "2000"
  }
}
